…
And the specific detection limit:


{% raw %}
```r
output_OF_avg |>
  mutate(diff = abs(average_sensitivity-average_specificity)) |>
  arrange(diff)


  ## # A tibble: 101 × 5
  ##    compound detection_limit average_sensitivity average_specificity    diff   
  ##    <chr>              <dbl>               <dbl>               <dbl>   <dbl>  
  ##  1 THC                 0.82               0.893               0.890 0.00338   
  ##  2 THC                 0.84               0.893               0.890 0.00338  
  ##  3 THC                 0.86               0.893               0.890 0.00338  
  ##  4 THC                 0.88               0.893               0.890 0.00338  
  ##  5 THC                 0.9                0.893               0.890 0.00338  
  ##  6 THC                 0.7                0.903               0.879 0.0240   
  ##  7 THC                 0.72               0.903               0.879 0.0240   
  ##  8 THC                 0.74               0.903               0.879 0.0240   
  ##  9 THC                 0.76               0.903               0.879 0.0240   
  ## 10 THC                 0.78               0.903               0.879 0.0240   
  ## # ℹ 91 more rows  
```
…
